{
  "info": {
    "count": 826,
    "pages": 42,
    "next": "https://rickandmortyapi.com/api/character?page=2",
    "prev": null
  },
  "results": [
    {
      "id": 1,
      "name": "Rick Sanchez",
      "status": "Alive",
      "favorite": false,
      "origin": "Earth (C-137)",
      "url": "https://rickandmortyapi.com/api/location/1",
      "location": "Citadel of Ricks",
      "image": "https://rickandmortyapi.com/api/character/avatar/1.jpeg"
    },
    {
      "id": 2,
      "name": "Morty Smith",
      "status": "Alive",
      "favorite": false,
      "origin": "unknown",
      "url": "",
      "location": "Citadel of Ricks",
      "image": "https://rickandmortyapi.com/api/character/avatar/2.jpeg"
    },
    {
      "id": 3,
      "name": "Summer Smith",
      "status": "Alive",
      "favorite": false,
      "origin": "Earth (Replacement Dimension)",
      "location": "Earth (Replacement Dimension)",
      "image": "https://rickandmortyapi.com/api/character/avatar/3.jpeg"
    },
    {
      "id": 4,
      "name": "Beth Smith",
      "status": "Alive",
      "favorite": false,
      "origin": "Earth (Replacement Dimension)",
      "location": "Earth (Replacement Dimension)",
      "image": "https://rickandmortyapi.com/api/character/avatar/4.jpeg"
    },
    {
      "id": 5,
      "name": "Jerry Smith",
      "status": "Alive",
      "favorite": false,
      "origin": "Earth (Replacement Dimension)",
      "location": "Earth (Replacement Dimension)",
      "image": "https://rickandmortyapi.com/api/character/avatar/5.jpeg"
    },
    {
      "id": 6,
      "name": "Abadango Cluster Princess",
      "status": "Alive",
      "favorite": false,
      "origin": "Abadango",
      "location": "Abadango",
      "image": "https://rickandmortyapi.com/api/character/avatar/6.jpeg"
    },
    {
      "id": 7,
      "name": "Abradolf Lincler",
      "status": "unknown",
      "favorite": false,
      "origin": "Earth (Replacement Dimension)",
      "location": "Testicle Monster Dimension",
      "image": "https://rickandmortyapi.com/api/character/avatar/7.jpeg"
    },
    {
      "id": 8,
      "name": "Adjudicator Rick",
      "status": "Dead",
      "favorite": false,
      "origin": "unknown",
      "location": "Citadel of Ricks",
      "image": "https://rickandmortyapi.com/api/character/avatar/8.jpeg"
    },
    {
      "id": 9,
      "name": "Agency Director",
      "status": "Dead",
      "favorite": false,
      "origin": "Earth (Replacement Dimension)",
      "location": "Earth (Replacement Dimension)",
      "image": "https://rickandmortyapi.com/api/character/avatar/9.jpeg"
    },
    {
      "id": 10,
      "name": "Alan Rails",
      "status": "Dead",
      "favorite": false,
      "origin": "unknown",
      "location": "Worldender's lair",
      "image": "https://rickandmortyapi.com/api/character/avatar/10.jpeg"
    }
  ]
}
